Chapter 7 利用R語言進行非監督式機器學習 | R語言課程講義
…
每個站點每天平均進出站人數

df %>%
  group_by(staName) %>%
  summarise(In=mean(gateInComingCnt), Out=mean(gateOutGoingCnt)) %>%
  ungroup() %>%
  arrange(desc(In))

## # A tibble: 237 x 3
##    staName     In    Out
##    <chr>    <dbl>  <dbl>
##  1 臺北    63258. 62578.
##  2 桃園    27563. 28538.
##  3 中壢    26588. 26992.
##  4 臺南    25946. 26148.
##  5 臺中    25796. 25064.
##  6 板橋    21320. 21362.
##  7 新竹    20084. 20284.
##  8 高雄    16905. 17002.
##  9 花蓮    16868. 15639.
## 10 松山    16651. 16711.
## # ... with 227 more rows
…
