Chapter 8 利用R語言進行監督式機器學習 | R語言課程講義
…
8.3.4 簡單字串類型

簡單字串資料類型與複雜資料的差別是前者的資料格式較單純，簡單字串資料類型只有一個variable：original_language。

分析original_language

movies %>%
  group_by(original_language) %>%
  summarise(count=n()) %>%
  mutate(proportion=count/sum(count)) %>%
  arrange(desc(proportion))

## # A tibble: 24 x 3
##    original_language count proportion
##    <chr>             <int>      <dbl>
##  1 en                 2617    0.966  
##  2 fr                   18    0.00665
##  3 es                   13    0.00480
##  4 ja                   10    0.00369
##  5 de                    8    0.00295
##  6 zh                    8    0.00295
##  7 it                    5    0.00185
##  8 cn                    4    0.00148
##  9 ko                    4    0.00148
## 10 da                    3    0.00111
## # ... with 14 more rows
…
